SplineFontDB: 2.0
FontName: progsole
FullName: progsole
FamilyName: progsole
Weight: Medium
Copyright: Modified ProggyTiny with FontForge 2.0 by TheMuffenMan
Comments: 2007-7-31: Created.
Version: 001.000
ItalicAngle: 0
UnderlinePosition: -100
UnderlineWidth: 50
Ascent: 800
Descent: 200
XUID: [1021 533 1973879516 9386812]
OS2Version: 0
OS2_WeightWidthSlopeOnly: 0
OS2_UseTypoMetrics: 1
CreationTime: 1185877737
ModificationTime: 1187714628
OS2TypoAscent: 0
OS2TypoAOffset: 1
OS2TypoDescent: 0
OS2TypoDOffset: 1
OS2TypoLinegap: 0
OS2WinAscent: 0
OS2WinAOffset: 1
OS2WinDescent: 0
OS2WinDOffset: 1
HheadAscent: 0
HheadAOffset: 1
HheadDescent: 0
HheadDOffset: 1
OS2Vendor: 'PfEd'
Encoding: ISO8859-1
UnicodeInterp: none
NameList: Adobe Glyph List
DisplaySize: 10
AntiAlias: 1
FitToEm: 1
WinInfo: 54 18 6
OnlyBitmaps: 1
BeginChars: 256 95
StartChar: a
Encoding: 97 97 0
Width: 600
Flags: W
TeX: 0 0 0 0
EndChar
StartChar: b
Encoding: 98 98 1
Width: 600
Flags: W
TeX: 0 0 0 0
EndChar
StartChar: c
Encoding: 99 99 2
Width: 600
Flags: W
TeX: 0 0 0 0
EndChar
StartChar: d
Encoding: 100 100 3
Width: 600
Flags: W
TeX: 0 0 0 0
EndChar
StartChar: e
Encoding: 101 101 4
Width: 600
Flags: W
TeX: 0 0 0 0
EndChar
StartChar: f
Encoding: 102 102 5
Width: 600
Flags: W
TeX: 0 0 0 0
EndChar
StartChar: g
Encoding: 103 103 6
Width: 600
Flags: W
TeX: 0 0 0 0
EndChar
StartChar: h
Encoding: 104 104 7
Width: 600
Flags: W
TeX: 0 0 0 0
EndChar
StartChar: i
Encoding: 105 105 8
Width: 600
Flags: W
TeX: 0 0 0 0
EndChar
StartChar: j
Encoding: 106 106 9
Width: 600
Flags: W
TeX: 0 0 0 0
EndChar
StartChar: k
Encoding: 107 107 10
Width: 600
Flags: W
TeX: 0 0 0 0
EndChar
StartChar: l
Encoding: 108 108 11
Width: 600
Flags: W
TeX: 0 0 0 0
EndChar
StartChar: m
Encoding: 109 109 12
Width: 600
Flags: W
TeX: 0 0 0 0
EndChar
StartChar: n
Encoding: 110 110 13
Width: 600
Flags: W
TeX: 0 0 0 0
EndChar
StartChar: o
Encoding: 111 111 14
Width: 600
Flags: W
TeX: 0 0 0 0
EndChar
StartChar: p
Encoding: 112 112 15
Width: 600
Flags: W
TeX: 0 0 0 0
EndChar
StartChar: q
Encoding: 113 113 16
Width: 600
Flags: W
TeX: 0 0 0 0
EndChar
StartChar: r
Encoding: 114 114 17
Width: 600
Flags: W
TeX: 0 0 0 0
EndChar
StartChar: s
Encoding: 115 115 18
Width: 600
Flags: W
TeX: 0 0 0 0
EndChar
StartChar: t
Encoding: 116 116 19
Width: 600
Flags: W
TeX: 0 0 0 0
EndChar
StartChar: u
Encoding: 117 117 20
Width: 600
Flags: W
TeX: 0 0 0 0
EndChar
StartChar: v
Encoding: 118 118 21
Width: 600
Flags: W
TeX: 0 0 0 0
EndChar
StartChar: w
Encoding: 119 119 22
Width: 600
Flags: W
TeX: 0 0 0 0
EndChar
StartChar: x
Encoding: 120 120 23
Width: 600
Flags: W
TeX: 0 0 0 0
EndChar
StartChar: y
Encoding: 121 121 24
Width: 600
Flags: W
TeX: 0 0 0 0
EndChar
StartChar: z
Encoding: 122 122 25
Width: 600
Flags: W
TeX: 0 0 0 0
EndChar
StartChar: braceleft
Encoding: 123 123 26
Width: 600
Flags: W
TeX: 0 0 0 0
EndChar
StartChar: braceright
Encoding: 125 125 27
Width: 600
Flags: W
TeX: 0 0 0 0
EndChar
StartChar: bracketleft
Encoding: 91 91 28
Width: 600
Flags: W
TeX: 0 0 0 0
EndChar
StartChar: bracketright
Encoding: 93 93 29
Width: 600
Flags: W
TeX: 0 0 0 0
EndChar
StartChar: semicolon
Encoding: 59 59 30
Width: 600
Flags: W
TeX: 0 0 0 0
EndChar
StartChar: colon
Encoding: 58 58 31
Width: 600
Flags: W
TeX: 0 0 0 0
EndChar
StartChar: at
Encoding: 64 64 32
Width: 600
Flags: W
TeX: 0 0 0 0
EndChar
StartChar: comma
Encoding: 44 44 33
Width: 600
Flags: W
TeX: 0 0 0 0
EndChar
StartChar: period
Encoding: 46 46 34
Width: 600
Flags: W
TeX: 0 0 0 0
EndChar
StartChar: percent
Encoding: 37 37 35
Width: 600
Flags: W
TeX: 0 0 0 0
EndChar
StartChar: dollar
Encoding: 36 36 36
Width: 600
Flags: W
TeX: 0 0 0 0
EndChar
StartChar: quotedbl
Encoding: 34 34 37
Width: 600
Flags: W
TeX: 0 0 0 0
EndChar
StartChar: parenright
Encoding: 41 41 38
Width: 600
Flags: W
TeX: 0 0 0 0
EndChar
StartChar: parenleft
Encoding: 40 40 39
Width: 600
Flags: W
TeX: 0 0 0 0
EndChar
StartChar: numbersign
Encoding: 35 35 40
Width: 600
Flags: W
TeX: 0 0 0 0
EndChar
StartChar: asterisk
Encoding: 42 42 41
Width: 600
Flags: W
TeX: 0 0 0 0
EndChar
StartChar: less
Encoding: 60 60 42
Width: 600
Flags: W
TeX: 0 0 0 0
EndChar
StartChar: greater
Encoding: 62 62 43
Width: 600
Flags: W
TeX: 0 0 0 0
EndChar
StartChar: space
Encoding: 32 32 44
Width: 600
Flags: W
TeX: 0 0 0 0
EndChar
StartChar: hyphen
Encoding: 45 45 45
Width: 600
Flags: W
TeX: 0 0 0 0
EndChar
StartChar: underscore
Encoding: 95 95 46
Width: 600
Flags: W
TeX: 0 0 0 0
EndChar
StartChar: slash
Encoding: 47 47 47
Width: 600
Flags: W
TeX: 0 0 0 0
EndChar
StartChar: exclam
Encoding: 33 33 48
Width: 600
Flags: W
TeX: 0 0 0 0
EndChar
StartChar: plus
Encoding: 43 43 49
Width: 600
Flags: W
TeX: 0 0 0 0
EndChar
StartChar: equal
Encoding: 61 61 50
Width: 600
Flags: W
TeX: 0 0 0 0
EndChar
StartChar: quotesingle
Encoding: 39 39 51
Width: 600
Flags: W
TeX: 0 0 0 0
EndChar
StartChar: ampersand
Encoding: 38 38 52
Width: 600
Flags: W
TeX: 0 0 0 0
EndChar
StartChar: question
Encoding: 63 63 53
Width: 600
Flags: W
TeX: 0 0 0 0
EndChar
StartChar: zero
Encoding: 48 48 54
Width: 600
Flags: W
TeX: 0 0 0 0
EndChar
StartChar: one
Encoding: 49 49 55
Width: 600
Flags: W
TeX: 0 0 0 0
EndChar
StartChar: two
Encoding: 50 50 56
Width: 600
Flags: W
TeX: 0 0 0 0
EndChar
StartChar: three
Encoding: 51 51 57
Width: 600
Flags: W
TeX: 0 0 0 0
EndChar
StartChar: four
Encoding: 52 52 58
Width: 600
Flags: W
TeX: 0 0 0 0
EndChar
StartChar: five
Encoding: 53 53 59
Width: 600
Flags: W
TeX: 0 0 0 0
EndChar
StartChar: seven
Encoding: 55 55 60
Width: 600
Flags: W
TeX: 0 0 0 0
EndChar
StartChar: eight
Encoding: 56 56 61
Width: 600
Flags: W
TeX: 0 0 0 0
EndChar
StartChar: nine
Encoding: 57 57 62
Width: 600
Flags: W
TeX: 0 0 0 0
EndChar
StartChar: six
Encoding: 54 54 63
Width: 600
Flags: W
TeX: 0 0 0 0
EndChar
StartChar: A
Encoding: 65 65 64
Width: 600
Flags: W
TeX: 0 0 0 0
EndChar
StartChar: B
Encoding: 66 66 65
Width: 600
Flags: W
TeX: 0 0 0 0
EndChar
StartChar: C
Encoding: 67 67 66
Width: 600
Flags: W
TeX: 0 0 0 0
EndChar
StartChar: D
Encoding: 68 68 67
Width: 600
Flags: W
TeX: 0 0 0 0
EndChar
StartChar: E
Encoding: 69 69 68
Width: 600
Flags: W
TeX: 0 0 0 0
EndChar
StartChar: F
Encoding: 70 70 69
Width: 600
Flags: W
TeX: 0 0 0 0
EndChar
StartChar: G
Encoding: 71 71 70
Width: 600
Flags: W
TeX: 0 0 0 0
EndChar
StartChar: H
Encoding: 72 72 71
Width: 600
Flags: W
TeX: 0 0 0 0
EndChar
StartChar: I
Encoding: 73 73 72
Width: 600
Flags: W
TeX: 0 0 0 0
EndChar
StartChar: J
Encoding: 74 74 73
Width: 600
Flags: W
TeX: 0 0 0 0
EndChar
StartChar: K
Encoding: 75 75 74
Width: 600
Flags: W
TeX: 0 0 0 0
EndChar
StartChar: L
Encoding: 76 76 75
Width: 600
Flags: W
TeX: 0 0 0 0
EndChar
StartChar: M
Encoding: 77 77 76
Width: 600
Flags: W
TeX: 0 0 0 0
EndChar
StartChar: N
Encoding: 78 78 77
Width: 600
Flags: W
TeX: 0 0 0 0
EndChar
StartChar: O
Encoding: 79 79 78
Width: 600
Flags: W
TeX: 0 0 0 0
EndChar
StartChar: P
Encoding: 80 80 79
Width: 600
Flags: W
TeX: 0 0 0 0
EndChar
StartChar: Q
Encoding: 81 81 80
Width: 600
Flags: W
TeX: 0 0 0 0
EndChar
StartChar: R
Encoding: 82 82 81
Width: 600
Flags: W
TeX: 0 0 0 0
EndChar
StartChar: S
Encoding: 83 83 82
Width: 600
Flags: W
TeX: 0 0 0 0
EndChar
StartChar: T
Encoding: 84 84 83
Width: 600
Flags: W
TeX: 0 0 0 0
EndChar
StartChar: U
Encoding: 85 85 84
Width: 600
Flags: W
TeX: 0 0 0 0
EndChar
StartChar: V
Encoding: 86 86 85
Width: 600
Flags: W
TeX: 0 0 0 0
EndChar
StartChar: W
Encoding: 87 87 86
Width: 600
Flags: W
TeX: 0 0 0 0
EndChar
StartChar: X
Encoding: 88 88 87
Width: 600
Flags: W
TeX: 0 0 0 0
EndChar
StartChar: Y
Encoding: 89 89 88
Width: 600
Flags: W
TeX: 0 0 0 0
EndChar
StartChar: Z
Encoding: 90 90 89
Width: 600
Flags: W
TeX: 0 0 0 0
EndChar
StartChar: backslash
Encoding: 92 92 90
Width: 600
Flags: W
TeX: 0 0 0 0
EndChar
StartChar: asciicircum
Encoding: 94 94 91
Width: 600
Flags: W
TeX: 0 0 0 0
EndChar
StartChar: bar
Encoding: 124 124 92
Width: 600
Flags: W
TeX: 0 0 0 0
EndChar
StartChar: asciitilde
Encoding: 126 126 93
Width: 600
Flags: W
TeX: 0 0 0 0
EndChar
StartChar: grave
Encoding: 96 96 94
Width: 600
Flags: W
TeX: 0 0 0 0
EndChar
EndChars
BitmapFont: 10 96 8 2 1 
BDFChar: 0 97 6 0 4 0 4
?k@:=BE/#4
BDFChar: 1 98 6 0 4 0 7
J:N0SaG@pA
BDFChar: 2 99 6 0 4 0 4
G_gm+GQ7^D
BDFChar: 3 100 6 0 4 0 7
#RC]LR#%,C
BDFChar: 4 101 6 0 4 0 4
E/=:>GQ7^D
BDFChar: 5 102 6 0 4 0 7
3']au5X7S"
BDFChar: 6 103 6 0 4 -2 4
BUFU3GR3d=
BDFChar: 7 104 6 0 4 0 7
J:N0SaG>Y.
BDFChar: 8 105 6 1 3 0 6
+9:=B+<Vd,
BDFChar: 9 106 6 0 3 -2 6
&-+Bq&.fBahuE`W
BDFChar: 10 107 6 1 4 0 7
J:N03TYR4^
BDFChar: 11 108 6 1 3 0 7
i#j-b+<VdL
BDFChar: 12 109 6 0 4 0 4
n>N:aVuQet
BDFChar: 13 110 6 0 4 0 4
\B'J^L]@DT
BDFChar: 14 111 6 0 4 0 4
E/9=+Du]k<
BDFChar: 15 112 6 0 4 -2 4
YfMXAY^h6(
BDFChar: 16 113 6 0 4 -2 4
BUFUCBF"kD
BDFChar: 17 114 6 0 3 0 4
Yg@oNJ,fQL
BDFChar: 18 115 6 0 4 0 4
G^s`=n,NFg
BDFChar: 19 116 6 1 4 0 6
J:QR.J:MS=
BDFChar: 20 117 6 0 4 0 4
LkpkSkPtS_
BDFChar: 21 118 6 0 4 0 4
Lknl(+92BA
BDFChar: 22 119 6 0 4 0 4
Lo@7K:]LIq
BDFChar: 23 120 6 0 4 0 4
Leo3jL]@DT
BDFChar: 24 121 6 0 4 -2 4
LkpkCGR3d=
BDFChar: 25 122 6 0 4 0 4
p^eQ5p](9o
BDFChar: 26 123 6 0 4 -1 7
3$9@%T\pq82uipY
BDFChar: 27 125 6 1 5 -1 7
i#j.%-o`=lhuE`W
BDFChar: 28 91 6 2 4 -1 7
i.-?.J:N0#huE`W
BDFChar: 29 93 6 1 3 -1 7
i#j-b+<VdLhuE`W
BDFChar: 30 59 6 1 2 -1 4
5X5;L5_&h7
BDFChar: 31 58 6 2 2 0 4
J:IWMJ,fQL
BDFChar: 32 64 6 0 4 0 6
E/:Hk\:Af(
BDFChar: 33 44 6 1 2 -1 0
5_&h7
BDFChar: 34 46 6 2 2 0 0
J,fQL
BDFChar: 35 37 6 0 5 0 5
A>mj+<1!Xc
BDFChar: 36 36 6 0 4 -1 7
+E49PE%%Z(+92BA
BDFChar: 37 34 6 1 3 5 7
TV.qX
BDFChar: 38 41 6 1 4 -1 7
^`X1"&.fBq^]4?7
BDFChar: 39 40 6 1 4 -1 7
0L1/=J:N/80E;(Q
BDFChar: 40 35 6 0 4 0 5
;#!j`peUqj
BDFChar: 41 42 6 0 4 0 4
+K07X+92BA
BDFChar: 42 60 6 0 4 0 4
#Va%J#QOi)
BDFChar: 43 62 6 0 4 0 4
J7'4%J,fQL
BDFChar: 44 32 6 3 3 0 0
z
BDFChar: 45 45 6 0 4 2 2
p](9o
BDFChar: 46 95 6 0 4 0 0
p](9o
BDFChar: 47 47 6 0 4 -1 7
#RCtQ+<Wp7J,fQL
BDFChar: 48 33 6 2 2 0 6
J:N0#J,k*"
BDFChar: 49 43 6 0 4 0 4
+<^G%+92BA
BDFChar: 50 61 6 1 4 1 3
n,VqX
BDFChar: 51 39 6 2 2 5 7
J:N.M
BDFChar: 52 38 6 0 4 0 6
@"<c@OH=,U
BDFChar: 53 63 6 0 4 -1 6
E/4c2+<UY,
BDFChar: 54 48 6 0 4 0 6
E/9=KLkp!M
BDFChar: 55 49 6 1 3 0 6
5eoWM5X=6-
BDFChar: 56 50 6 0 4 0 6
E/4c2+@,]%
BDFChar: 57 51 6 0 4 0 6
E/4cR#`*F"
BDFChar: 58 52 6 0 4 0 6
&26qBp^du:
BDFChar: 59 53 6 0 4 0 6
GX+N5#`*F"
BDFChar: 60 55 6 0 3 0 6
n.6-R5X7R7
BDFChar: 61 56 6 0 4 0 6
E/9<hLkp!M
BDFChar: 62 57 6 0 4 0 6
E/9<p#S:AD
BDFChar: 63 54 6 0 4 0 6
0L10XLkp!M
BDFChar: 64 65 6 0 4 0 6
+<XKWE/9;M
BDFChar: 65 66 6 0 4 0 6
n;)niLktO#
BDFChar: 66 67 6 0 4 0 6
G_gm#J;AFM
BDFChar: 67 68 6 0 4 0 6
i/ibNLlgNp
BDFChar: 68 69 6 0 4 0 6
pjdnaJ:RCp
BDFChar: 69 70 6 0 4 0 6
pjdnaJ:N.M
BDFChar: 70 71 6 0 4 0 6
E/9%3Lkp9U
BDFChar: 71 72 6 0 4 0 6
Lkpl^Lkpie
BDFChar: 72 73 6 1 3 0 6
i'9Om5X=6-
BDFChar: 73 74 6 0 4 0 6
3!]cq#RKo"
BDFChar: 74 75 6 0 4 0 6
Lle:FTTFs0
BDFChar: 75 76 6 0 4 0 6
J:N0#J;Et#
BDFChar: 76 77 6 0 4 0 6
Lks^9W2PLP
BDFChar: 77 78 6 0 4 0 6
aN1<YW0iqP
BDFChar: 78 79 6 0 4 0 6
E/9=+Lkp!M
BDFChar: 79 80 6 0 4 0 6
n;)niJ:N.M
BDFChar: 80 81 6 0 4 0 6
E/9=+W/tZm
BDFChar: 81 82 6 0 4 0 6
n;)niLkpie
BDFChar: 82 83 6 0 4 0 6
E/9$`#`*F"
BDFChar: 83 84 6 0 4 0 6
p`L\%+<Vd,
BDFChar: 84 85 6 0 4 0 6
LkpkCLkp!M
BDFChar: 85 86 6 0 4 0 6
Lkpj`:`pk\
BDFChar: 86 87 6 0 4 0 6
Lo@8N:f'sg
BDFChar: 87 88 6 0 4 0 6
LknkM:l'o-
BDFChar: 88 89 6 0 4 0 6
Lkpk++<Vd,
BDFChar: 89 90 6 0 4 0 6
pkTJ(5`#18
BDFChar: 90 92 6 0 4 -1 7
J:KmM+<V4,#QOi)
BDFChar: 91 94 6 0 4 4 6
+Adjo
BDFChar: 92 124 6 2 2 -1 6
J:N0#J:N0#
BDFChar: 93 126 6 0 5 2 3
Qt-0s
BDFChar: 94 96 6 1 2 6 7
J3X)7
EndBitmapFont
EndSplineFont
